jack@gmail.com,123,Jack,Reacher,0412312312,123456789
tom@gm,cs1531,Tom,Tompson,0444444444,123456789
isaac@gmail.com,cs1531,Isaac,Isaacson,0412384781,123456789
hao@gmail.com,cs1531,How,Ru,0488888888,132456789